Getting started with cxr
…
fit_3sp[[i]] <- fit
}
names(fit_3sp) <- all_sp

We can also have a glimpse of this multispecies fit for each species
separately. This is an example for the first species.

fit_3sp$BEMA

## $model_name
## [1] "BH_pm_alpha_pairwise_lambdacov_global_alphacov_global"
## 
## $data
## $data$BEMA
## # A tibble: 287 × 18
##    fitness  BEMA  CETE  CHFU  CHMI  HOMA  LEMA  MEEL  MESU  PAIN  PLCO  POMA
##      <int> <dbl> <dbl> <dbl> <dbl> <dbl> <dbl> <dbl> <dbl> <dbl> <dbl> <dbl>
##  1     116     1     0     0     0     0     0     0     0     0     0    34
##  2      68     0     0     0     0     0     1     0     0     0     0    47
##  3      36     0     0     0     0     0     0     0     0     0     0    38
##  4      64     0     0     0     0     0     5     0     0     0     0    21
##  5     144     2     0     0     0     0     0     0     0     0     0    55
##  6      56     1     0     0     0     0     4     0     0     0     0    17
##  7      32     0     0     0     0     0     1     0     0     0     0    60
##  8     112     0     0     0     0     0     1     0     0     0     0    35
##  9      36     0     0     0     0    65     0     0     0     0     0     0
## 10      68     1     0     0     0    36     1     0     0     0     0     0
## # ℹ 277 more rows
## # ℹ 6 more variables: POMO <dbl>, PUPA <dbl>, SASO <dbl>, SCLA <dbl>,
## #   SOAS <dbl>, SPRU <dbl>
## 
## 
## $taxa
## [1] "BEMA"
## 
## $covariates
…
